info face="Arial" size=18 bold=0 italic=0 charset="" unicode=0 stretchH=100 smooth=1 aa=1 padding=0,0,0,0 spacing=0,0
common lineHeight=22 base=20 scaleW=256 scaleH=128 pages=1 packed=0
page id=0 file="arial.png"
chars count=95
char id=32 x=168 y=118 width=0 height=0 xoffset=0 yoffset=17 xadvance=6 page=0 chnl=0
char id=33 x=194 y=106 width=6 height=18 xoffset=2 yoffset=3 xadvance=6 page=0 chnl=0
char id=34 x=218 y=54 width=10 height=10 xoffset=1 yoffset=2 xadvance=7 page=0 chnl=0
char id=35 x=198 y=2 width=14 height=18 xoffset=1 yoffset=3 xadvance=11 page=0 chnl=0
char id=36 x=64 y=102 width=14 height=20 xoffset=1 yoffset=2 xadvance=11 page=0 chnl=0
char id=37 x=26 y=22 width=18 height=18 xoffset=2 yoffset=3 xadvance=17 page=0 chnl=0
char id=38 x=64 y=82 width=16 height=18 xoffset=1 yoffset=3 xadvance=13 page=0 chnl=0
char id=39 x=186 y=110 width=6 height=10 xoffset=1 yoffset=2 xadvance=4 page=0 chnl=0
char id=40 x=134 y=94 width=10 height=22 xoffset=2 yoffset=2 xadvance=6 page=0 chnl=0
char id=41 x=134 y=70 width=10 height=22 xoffset=2 yoffset=2 xadvance=6 page=0 chnl=0
char id=42 x=240 y=38 width=10 height=10 xoffset=1 yoffset=3 xadvance=8 page=0 chnl=0
char id=43 x=160 y=102 width=14 height=14 xoffset=2 yoffset=4 xadvance=11 page=0 chnl=0
char id=44 x=240 y=54 width=6 height=10 xoffset=2 yoffset=13 xadvance=6 page=0 chnl=0
char id=45 x=134 y=118 width=10 height=6 xoffset=1 yoffset=11 xadvance=6 page=0 chnl=0
char id=46 x=160 y=118 width=6 height=6 xoffset=2 yoffset=15 xadvance=6 page=0 chnl=0
char id=47 x=146 y=102 width=10 height=18 xoffset=0 yoffset=3 xadvance=6 page=0 chnl=0
char id=48 x=182 y=2 width=14 height=18 xoffset=1 yoffset=3 xadvance=11 page=0 chnl=0
char id=49 x=146 y=82 width=10 height=18 xoffset=2 yoffset=3 xadvance=11 page=0 chnl=0
char id=50 x=166 y=2 width=14 height=18 xoffset=1 yoffset=3 xadvance=11 page=0 chnl=0
char id=51 x=150 y=2 width=14 height=18 xoffset=1 yoffset=3 xadvance=11 page=0 chnl=0
char id=52 x=134 y=2 width=14 height=18 xoffset=1 yoffset=3 xadvance=11 page=0 chnl=0
char id=53 x=118 y=102 width=14 height=18 xoffset=1 yoffset=3 xadvance=11 page=0 chnl=0
char id=54 x=118 y=82 width=14 height=18 xoffset=1 yoffset=3 xadvance=11 page=0 chnl=0
char id=55 x=118 y=62 width=14 height=18 xoffset=1 yoffset=3 xadvance=11 page=0 chnl=0
char id=56 x=118 y=42 width=14 height=18 xoffset=1 yoffset=3 xadvance=11 page=0 chnl=0
char id=57 x=118 y=22 width=14 height=18 xoffset=1 yoffset=3 xadvance=11 page=0 chnl=0
char id=58 x=176 y=110 width=6 height=14 xoffset=2 yoffset=7 xadvance=6 page=0 chnl=0
char id=59 x=202 y=66 width=6 height=16 xoffset=2 yoffset=7 xadvance=6 page=0 chnl=0
char id=60 x=160 y=86 width=14 height=14 xoffset=1 yoffset=5 xadvance=11 page=0 chnl=0
char id=61 x=186 y=54 width=14 height=10 xoffset=2 yoffset=7 xadvance=11 page=0 chnl=0
char id=62 x=160 y=70 width=14 height=14 xoffset=1 yoffset=5 xadvance=11 page=0 chnl=0
char id=63 x=118 y=2 width=14 height=18 xoffset=1 yoffset=3 xadvance=11 page=0 chnl=0
char id=64 x=2 y=2 width=22 height=22 xoffset=1 yoffset=2 xadvance=19 page=0 chnl=0
char id=65 x=26 y=2 width=18 height=18 xoffset=0 yoffset=3 xadvance=13 page=0 chnl=0
char id=66 x=98 y=98 width=14 height=18 xoffset=2 yoffset=3 xadvance=13 page=0 chnl=0
char id=67 x=64 y=62 width=16 height=18 xoffset=1 yoffset=3 xadvance=13 page=0 chnl=0
char id=68 x=64 y=42 width=16 height=18 xoffset=2 yoffset=3 xadvance=13 page=0 chnl=0
char id=69 x=98 y=78 width=14 height=18 xoffset=2 yoffset=3 xadvance=13 page=0 chnl=0
char id=70 x=98 y=58 width=14 height=18 xoffset=2 yoffset=3 xadvance=11 page=0 chnl=0
char id=71 x=64 y=22 width=16 height=18 xoffset=1 yoffset=3 xadvance=15 page=0 chnl=0
char id=72 x=64 y=2 width=16 height=18 xoffset=2 yoffset=3 xadvance=13 page=0 chnl=0
char id=73 x=194 y=86 width=6 height=18 xoffset=2 yoffset=3 xadvance=6 page=0 chnl=0
char id=74 x=146 y=22 width=12 height=18 xoffset=1 yoffset=3 xadvance=9 page=0 chnl=0
char id=75 x=46 y=102 width=16 height=18 xoffset=2 yoffset=3 xadvance=13 page=0 chnl=0
char id=76 x=98 y=38 width=14 height=18 xoffset=2 yoffset=3 xadvance=11 page=0 chnl=0
char id=77 x=2 y=88 width=18 height=18 xoffset=2 yoffset=3 xadvance=15 page=0 chnl=0
char id=78 x=46 y=82 width=16 height=18 xoffset=2 yoffset=3 xadvance=13 page=0 chnl=0
char id=79 x=2 y=68 width=18 height=18 xoffset=1 yoffset=3 xadvance=15 page=0 chnl=0
char id=80 x=98 y=18 width=14 height=18 xoffset=2 yoffset=3 xadvance=13 page=0 chnl=0
char id=81 x=2 y=46 width=18 height=20 xoffset=1 yoffset=2 xadvance=15 page=0 chnl=0
char id=82 x=46 y=62 width=16 height=18 xoffset=2 yoffset=3 xadvance=13 page=0 chnl=0
char id=83 x=46 y=42 width=16 height=18 xoffset=1 yoffset=3 xadvance=13 page=0 chnl=0
char id=84 x=46 y=22 width=16 height=18 xoffset=1 yoffset=3 xadvance=11 page=0 chnl=0
char id=85 x=46 y=2 width=16 height=18 xoffset=2 yoffset=3 xadvance=13 page=0 chnl=0
char id=86 x=26 y=102 width=16 height=18 xoffset=1 yoffset=3 xadvance=13 page=0 chnl=0
char id=87 x=2 y=26 width=22 height=18 xoffset=1 yoffset=3 xadvance=17 page=0 chnl=0
char id=88 x=26 y=82 width=16 height=18 xoffset=1 yoffset=3 xadvance=13 page=0 chnl=0
char id=89 x=26 y=62 width=16 height=18 xoffset=1 yoffset=3 xadvance=13 page=0 chnl=0
char id=90 x=26 y=42 width=16 height=18 xoffset=1 yoffset=3 xadvance=11 page=0 chnl=0
char id=91 x=176 y=86 width=8 height=22 xoffset=2 yoffset=2 xadvance=6 page=0 chnl=0
char id=92 x=146 y=62 width=10 height=18 xoffset=0 yoffset=3 xadvance=6 page=0 chnl=0
char id=93 x=176 y=62 width=8 height=22 xoffset=1 yoffset=2 xadvance=6 page=0 chnl=0
char id=94 x=214 y=38 width=12 height=12 xoffset=1 yoffset=2 xadvance=9 page=0 chnl=0
char id=95 x=98 y=118 width=16 height=6 xoffset=0 yoffset=18 xadvance=11 page=0 chnl=0
char id=96 x=230 y=54 width=8 height=8 xoffset=1 yoffset=2 xadvance=6 page=0 chnl=0
char id=97 x=160 y=54 width=14 height=14 xoffset=1 yoffset=7 xadvance=11 page=0 chnl=0
char id=98 x=82 y=102 width=14 height=18 xoffset=2 yoffset=3 xadvance=11 page=0 chnl=0
char id=99 x=160 y=38 width=14 height=14 xoffset=1 yoffset=7 xadvance=9 page=0 chnl=0
char id=100 x=82 y=82 width=14 height=18 xoffset=1 yoffset=3 xadvance=11 page=0 chnl=0
char id=101 x=224 y=22 width=14 height=14 xoffset=1 yoffset=7 xadvance=11 page=0 chnl=0
char id=102 x=146 y=42 width=10 height=18 xoffset=1 yoffset=3 xadvance=6 page=0 chnl=0
char id=103 x=82 y=62 width=14 height=18 xoffset=1 yoffset=6 xadvance=11 page=0 chnl=0
char id=104 x=228 y=2 width=12 height=18 xoffset=2 yoffset=3 xadvance=11 page=0 chnl=0
char id=105 x=194 y=66 width=6 height=18 xoffset=2 yoffset=3 xadvance=4 page=0 chnl=0
char id=106 x=176 y=38 width=8 height=22 xoffset=0 yoffset=2 xadvance=4 page=0 chnl=0
char id=107 x=214 y=2 width=12 height=18 xoffset=2 yoffset=3 xadvance=9 page=0 chnl=0
char id=108 x=186 y=90 width=6 height=18 xoffset=2 yoffset=3 xadvance=4 page=0 chnl=0
char id=109 x=98 y=2 width=18 height=14 xoffset=2 yoffset=7 xadvance=15 page=0 chnl=0
char id=110 x=200 y=38 width=12 height=14 xoffset=2 yoffset=7 xadvance=11 page=0 chnl=0
char id=111 x=208 y=22 width=14 height=14 xoffset=1 yoffset=7 xadvance=11 page=0 chnl=0
char id=112 x=82 y=42 width=14 height=18 xoffset=2 yoffset=6 xadvance=11 page=0 chnl=0
char id=113 x=82 y=22 width=14 height=18 xoffset=1 yoffset=6 xadvance=11 page=0 chnl=0
char id=114 x=228 y=38 width=10 height=14 xoffset=2 yoffset=7 xadvance=6 page=0 chnl=0
char id=115 x=186 y=38 width=12 height=14 xoffset=1 yoffset=7 xadvance=9 page=0 chnl=0
char id=116 x=242 y=2 width=10 height=18 xoffset=1 yoffset=3 xadvance=6 page=0 chnl=0
char id=117 x=240 y=22 width=12 height=14 xoffset=2 yoffset=7 xadvance=11 page=0 chnl=0
char id=118 x=192 y=22 width=14 height=14 xoffset=1 yoffset=7 xadvance=9 page=0 chnl=0
char id=119 x=2 y=108 width=18 height=14 xoffset=1 yoffset=7 xadvance=13 page=0 chnl=0
char id=120 x=176 y=22 width=14 height=14 xoffset=1 yoffset=7 xadvance=9 page=0 chnl=0
char id=121 x=82 y=2 width=14 height=18 xoffset=1 yoffset=6 xadvance=9 page=0 chnl=0
char id=122 x=160 y=22 width=14 height=14 xoffset=1 yoffset=7 xadvance=9 page=0 chnl=0
char id=123 x=134 y=46 width=10 height=22 xoffset=1 yoffset=2 xadvance=7 page=0 chnl=0
char id=124 x=186 y=66 width=6 height=22 xoffset=2 yoffset=2 xadvance=5 page=0 chnl=0
char id=125 x=134 y=22 width=10 height=22 xoffset=1 yoffset=2 xadvance=7 page=0 chnl=0
char id=126 x=202 y=54 width=14 height=8 xoffset=1 yoffset=8 xadvance=11 page=0 chnl=0
kernings count=38
kerning first=84 second=97 amount=-1
kerning first=84 second=99 amount=-1
kerning first=80 second=65 amount=-1
kerning first=89 second=111 amount=-1
kerning first=84 second=111 amount=-1
kerning first=89 second=112 amount=-1
kerning first=84 second=65 amount=-1
kerning first=80 second=44 amount=-2
kerning first=89 second=113 amount=-1
kerning first=76 second=84 amount=-1
kerning first=80 second=46 amount=-2
kerning first=76 second=86 amount=-1
kerning first=76 second=87 amount=-1
kerning first=84 second=58 amount=-1
kerning first=84 second=44 amount=-1
kerning first=84 second=115 amount=-1
kerning first=76 second=89 amount=-1
kerning first=84 second=46 amount=-1
kerning first=89 second=97 amount=-1
kerning first=89 second=101 amount=-1
kerning first=49 second=49 amount=-1
kerning first=84 second=101 amount=-1
kerning first=86 second=97 amount=-1
kerning first=89 second=65 amount=-1
kerning first=118 second=44 amount=-1
kerning first=65 second=84 amount=-1
kerning first=65 second=86 amount=-1
kerning first=118 second=46 amount=-1
kerning first=65 second=89 amount=-1
kerning first=89 second=44 amount=-2
kerning first=86 second=65 amount=-1
kerning first=89 second=46 amount=-2
kerning first=121 second=44 amount=-1
kerning first=70 second=44 amount=-1
kerning first=86 second=44 amount=-1
kerning first=70 second=46 amount=-1
kerning first=121 second=46 amount=-1
kerning first=86 second=46 amount=-1
